check009.in:96:positive brace level at end of paragraph
	Unclosed open brace at line 94
check009.in:98:positive brace level at end of paragraph
	Unclosed open brace at line 94
check009.in:101:positive brace level at end of paragraph
	Unclosed open brace at line 94
check009.in:166:positive environment level at start of sectional division: reset to zero
	Unclosed open environments at lines 104 {keywords} 105 {subjclass}
check009.in:455:positive brace level at start of list item
	Unclosed open brace at line 454
