check002.in:9:positive bracket level at end of paragraph
	Unclosed open brackets at lines 7 7 7 7 7
		 7 7 7 7 7
		 7 7 7 7 7
		 7 7 7 7 7
		 7 7 7 7
check002.in:9:positive parenthesis level at end of paragraph
	Unclosed open parenthesis at line 2
check002.in:9:positive bracket level at end of file
	Unclosed open brackets at lines 7 7 7 7 7
		 7 7 7 7 7
		 7 7 7 7 7
		 7 7 7 7 7
		 7 7 7 7
check002.in:9:positive parenthesis level at end of file
	Unclosed open parenthesis at line 2
